......
----------------------------------------------------------------------
Ran 6 tests in 0.002s

OK
Name               Stmts   Miss Branch BrPart  Cover   Missing
--------------------------------------------------------------
Diplomacy.py          82      0     50      0   100%
TestDiplomacy.py      34      0      0      0   100%
--------------------------------------------------------------
TOTAL                116      0     50      0   100%
