............
----------------------------------------------------------------------
Ran 12 tests in 0.002s

OK
Name               Stmts   Miss Branch BrPart  Cover   Missing
--------------------------------------------------------------
Diplomacy.py          83      1     40      2    98%   19, 47->37
TestDiplomacy.py      58      0      0      0   100%
--------------------------------------------------------------
TOTAL                141      1     40      2    98%
