.............
----------------------------------------------------------------------
Ran 13 tests in 0.005s

OK
Name               Stmts   Miss Branch BrPart  Cover   Missing
--------------------------------------------------------------
Diplomacy.py          71      0     52      0   100%
TestDiplomacy.py      63      0      0      0   100%
--------------------------------------------------------------
TOTAL                134      0     52      0   100%
