.........
----------------------------------------------------------------------
Ran 9 tests in 0.001s

OK
Name               Stmts   Miss Branch BrPart  Cover
----------------------------------------------------
Diplomacy.py          49      0     38      0   100%
TestDiplomacy.py      51      0      0      0   100%
----------------------------------------------------
TOTAL                100      0     38      0   100%