Test 1
............
----------------------------------------------------------------------
Ran 12 tests in 0.002s

OK
Name               Stmts   Miss Branch BrPart  Cover   Missing
--------------------------------------------------------------
Diplomacy.py          85      0     44      0   100%
TestDiplomacy.py      52      0      0      0   100%
--------------------------------------------------------------
TOTAL                137      0     44      0   100%


Test 2
............
----------------------------------------------------------------------
Ran 12 tests in 0.002s

OK
Name               Stmts   Miss Branch BrPart  Cover   Missing
--------------------------------------------------------------
Diplomacy.py          85      0     44      0   100%
TestDiplomacy.py      52      0      0      0   100%
--------------------------------------------------------------
TOTAL                137      0     44      0   100%

Test 3
............
----------------------------------------------------------------------
Ran 12 tests in 0.002s

OK
Name               Stmts   Miss Branch BrPart  Cover   Missing
--------------------------------------------------------------
Diplomacy.py          85      0     44      0   100%
TestDiplomacy.py      52      0      0      0   100%
--------------------------------------------------------------
TOTAL                137      0     44      0   100%


Test 4
............
----------------------------------------------------------------------
Ran 12 tests in 0.002s

OK
Name               Stmts   Miss Branch BrPart  Cover   Missing
--------------------------------------------------------------
Diplomacy.py          85      0     44      0   100%
TestDiplomacy.py      52      0      0      0   100%
--------------------------------------------------------------
TOTAL                137      0     44      0   100%

Test 5
............
----------------------------------------------------------------------
Ran 12 tests in 0.002s

OK
Name               Stmts   Miss Branch BrPart  Cover   Missing
--------------------------------------------------------------
Diplomacy.py          85      0     44      0   100%
TestDiplomacy.py      52      0      0      0   100%
--------------------------------------------------------------
TOTAL                137      0     44      0   100%

Test 6
............
----------------------------------------------------------------------
Ran 12 tests in 0.002s

OK
Name               Stmts   Miss Branch BrPart  Cover   Missing
--------------------------------------------------------------
Diplomacy.py          85      0     44      0   100%
TestDiplomacy.py      52      0      0      0   100%
--------------------------------------------------------------
TOTAL                137      0     44      0   100%


Test 7
............
----------------------------------------------------------------------
Ran 12 tests in 0.002s

OK
Name               Stmts   Miss Branch BrPart  Cover   Missing
--------------------------------------------------------------
Diplomacy.py          85      0     44      0   100%
TestDiplomacy.py      52      0      0      0   100%
--------------------------------------------------------------
TOTAL                137      0     44      0   100%

