................
----------------------------------------------------------------------
Ran 16 tests in 0.001s

OK
Name               Stmts   Miss Branch BrPart  Cover   Missing
--------------------------------------------------------------
Diplomacy.py          71      0     44      0   100%
TestDiplomacy.py      67      0      0      0   100%
--------------------------------------------------------------
TOTAL                138      0     44      0   100%